{
  "name" : "nanodma",
  "version-string" : "1.0.0",
  "builtin-baseline" : "962e5e39f8a25f42522f51fffc574e05a3efd26b",
  "dependencies" : [ {
    "name" : "imgui",
    "version>=" : "1.89.9",
    "$comment" : "    # this is heuristically generated, and may not be correct\n\n    find_package(imgui CONFIG REQUIRED)\n\n    target_link_libraries(main PRIVATE imgui::imgui)\n"
  }, {
    "name" : "sdl2",
    "version>=" : "2.28.2"
  }, {
    "name" : "sdl2-image",
    "version>=" : "2.6.3"
  }, {
    "name" : "spdlog",
    "version>=" : "1.12.0"
  } ]
}